src/simulation/qsim/uart_hc05.msim.vcd
$comment
	File created using the following command:
		vcd file uart_hc05.msim.vcd -direction
$end
$date
	Thu Feb 11 20:00:21 2021
$end
$version
	ModelSim Version 10.5b
$end
$timescale
	1ps
$end

$scope module uart_hc05_vlg_vec_tst $end
$var reg 1 ! clock $end
$var wire 1 " done $end
$var wire 1 # tx $end

$scope module i1 $end
$var wire 1 $ gnd $end
$var wire 1 % vcc $end
$var wire 1 & unknown $end
$var tri1 1 ' devclrn $end
$var tri1 1 ( devpor $end
$var tri1 1 ) devoe $end
$var wire 1 * clock~input_o $end
$var wire 1 + baud|baudRate_count[0]~16_combout $end
$var wire 1 , baud|baudRate_count[0]~17 $end
$var wire 1 - baud|baudRate_count[1]~18_combout $end
$var wire 1 . ~GND~combout $end
$var wire 1 / baud|baudRate_count[1]~19 $end
$var wire 1 0 baud|baudRate_count[2]~20_combout $end
$var wire 1 1 baud|baudRate_count[2]~21 $end
$var wire 1 2 baud|baudRate_count[3]~22_combout $end
$var wire 1 3 baud|Equal0~0_combout $end
$var wire 1 4 baud|baudRate_count[3]~23 $end
$var wire 1 5 baud|baudRate_count[4]~24_combout $end
$var wire 1 6 baud|baudRate_count[4]~25 $end
$var wire 1 7 baud|baudRate_count[5]~26_combout $end
$var wire 1 8 baud|baudRate_count[5]~27 $end
$var wire 1 9 baud|baudRate_count[6]~28_combout $end
$var wire 1 : baud|baudRate_count[6]~29 $end
$var wire 1 ; baud|baudRate_count[7]~30_combout $end
$var wire 1 < baud|Equal0~1_combout $end
$var wire 1 = baud|baudRate_count[7]~31 $end
$var wire 1 > baud|baudRate_count[8]~32_combout $end
$var wire 1 ? baud|baudRate_count[8]~33 $end
$var wire 1 @ baud|baudRate_count[9]~34_combout $end
$var wire 1 A baud|baudRate_count[9]~35 $end
$var wire 1 B baud|baudRate_count[10]~36_combout $end
$var wire 1 C baud|baudRate_count[10]~37 $end
$var wire 1 D baud|baudRate_count[11]~38_combout $end
$var wire 1 E baud|Equal0~2_combout $end
$var wire 1 F baud|baudRate_count[11]~39 $end
$var wire 1 G baud|baudRate_count[12]~40_combout $end
$var wire 1 H baud|baudRate_count[12]~41 $end
$var wire 1 I baud|baudRate_count[13]~42_combout $end
$var wire 1 J baud|baudRate_count[13]~43 $end
$var wire 1 K baud|baudRate_count[14]~44_combout $end
$var wire 1 L baud|baudRate_count[14]~45 $end
$var wire 1 M baud|baudRate_count[15]~46_combout $end
$var wire 1 N baud|Equal0~3_combout $end
$var wire 1 O baud|Equal0~combout $end
$var wire 1 P uartTx|next_state~0_combout $end
$var wire 1 Q uartTx|curent_state~q $end
$var wire 1 R uartTx|Add1~0_combout $end
$var wire 1 S uartTx|bit_count[0]~2_combout $end
$var wire 1 T uartTx|Add1~1 $end
$var wire 1 U uartTx|Add1~2_combout $end
$var wire 1 V uartTx|Add1~3 $end
$var wire 1 W uartTx|Add1~4_combout $end
$var wire 1 X uartTx|always3~2_combout $end
$var wire 1 Y uartTx|counter~2_combout $end
$var wire 1 Z uartTx|counter~3_combout $end
$var wire 1 [ uartTx|counter~4_combout $end
$var wire 1 \ uartTx|counter~6_combout $end
$var wire 1 ] uartTx|Add0~0_combout $end
$var wire 1 ^ uartTx|counter~5_combout $end
$var wire 1 _ uartTx|always3~3_combout $end
$var wire 1 ` uartTx|start_bit~0_combout $end
$var wire 1 a uartTx|start_bit~q $end
$var wire 1 b uartTx|always3~1_combout $end
$var wire 1 c uartTx|bit_count[3]~0_combout $end
$var wire 1 d uartTx|Add1~5 $end
$var wire 1 e uartTx|Add1~6_combout $end
$var wire 1 f uartTx|bit_count[3]~1_combout $end
$var wire 1 g uartTx|Add1~7 $end
$var wire 1 h uartTx|Add1~8_combout $end
$var wire 1 i uartTx|always3~0_combout $end
$var wire 1 j uartTx|stop_bit~0_combout $end
$var wire 1 k uartTx|stop_bit~q $end
$var wire 1 l uartTx|tx~0_combout $end
$var wire 1 m uartTx|tmp_transmit_data~8_combout $end
$var wire 1 n uartTx|tmp_transmit_data~7_combout $end
$var wire 1 o uartTx|tmp_transmit_data[0]~1_combout $end
$var wire 1 p uartTx|tmp_transmit_data~6_combout $end
$var wire 1 q uartTx|tmp_transmit_data~5_combout $end
$var wire 1 r uartTx|tmp_transmit_data~4_combout $end
$var wire 1 s uartTx|tmp_transmit_data~3_combout $end
$var wire 1 t uartTx|tmp_transmit_data~2_combout $end
$var wire 1 u uartTx|tmp_transmit_data~0_combout $end
$var wire 1 v uartTx|tx~1_combout $end
$var wire 1 w uartTx|tx~q $end
$var wire 1 x baud|baudRate_count [15] $end
$var wire 1 y baud|baudRate_count [14] $end
$var wire 1 z baud|baudRate_count [13] $end
$var wire 1 { baud|baudRate_count [12] $end
$var wire 1 | baud|baudRate_count [11] $end
$var wire 1 } baud|baudRate_count [10] $end
$var wire 1 ~ baud|baudRate_count [9] $end
$var wire 1 !! baud|baudRate_count [8] $end
$var wire 1 "! baud|baudRate_count [7] $end
$var wire 1 #! baud|baudRate_count [6] $end
$var wire 1 $! baud|baudRate_count [5] $end
$var wire 1 %! baud|baudRate_count [4] $end
$var wire 1 &! baud|baudRate_count [3] $end
$var wire 1 '! baud|baudRate_count [2] $end
$var wire 1 (! baud|baudRate_count [1] $end
$var wire 1 )! baud|baudRate_count [0] $end
$var wire 1 *! uartTx|bit_count [4] $end
$var wire 1 +! uartTx|bit_count [3] $end
$var wire 1 ,! uartTx|bit_count [2] $end
$var wire 1 -! uartTx|bit_count [1] $end
$var wire 1 .! uartTx|bit_count [0] $end
$var wire 1 /! uartTx|counter [3] $end
$var wire 1 0! uartTx|counter [2] $end
$var wire 1 1! uartTx|counter [1] $end
$var wire 1 2! uartTx|counter [0] $end
$var wire 1 3! uartTx|tmp_transmit_data [7] $end
$var wire 1 4! uartTx|tmp_transmit_data [6] $end
$var wire 1 5! uartTx|tmp_transmit_data [5] $end
$var wire 1 6! uartTx|tmp_transmit_data [4] $end
$var wire 1 7! uartTx|tmp_transmit_data [3] $end
$var wire 1 8! uartTx|tmp_transmit_data [2] $end
$var wire 1 9! uartTx|tmp_transmit_data [1] $end
$var wire 1 :! uartTx|tmp_transmit_data [0] $end
$upscope $end
$upscope $end
$enddefinitions $end
#0
$dumpvars
0!
0"
0#
0$
1%
x&
1'
1(
1)
0*
1+
0,
0-
0.
1/
00
01
02
03
14
05
06
07
18
09
0:
0;
0<
1=
0>
0?
0@
1A
0B
0C
0D
0E
1F
0G
0H
0I
1J
0K
0L
0M
1N
0O
0P
0Q
1R
0S
0T
0U
1V
0W
0X
0Y
0Z
0[
0\
0]
0^
0_
1`
0a
0b
0c
0d
0e
0f
1g
0h
1i
0j
0k
0l
1m
1n
1o
0p
0q
1r
1s
0t
0u
0v
0w
0)!
0(!
0'!
0&!
0%!
0$!
0#!
0"!
0!!
0~
0}
0|
0{
0z
0y
0x
0.!
0-!
0,!
0+!
0*!
02!
01!
00!
0/!
0:!
09!
08!
07!
06!
05!
04!
03!
$end
#10000
1!
1*
1)!
1,
0+
1-
#20000
0!
0*
#30000
1!
1*
1(!
0)!
0/
0,
0-
1+
1/
10
1-
00
#40000
0!
0*
#50000
1!
1*
1)!
1,
0+
0/
0-
10
#60000
0!
0*
#70000
1!
1*
1'!
0(!
0)!
11
1/
0,
00
1-
1+
01
12
10
0-
02
#80000
0!
0*
#90000
1!
1*
1)!
13
1,
0+
1-
#100000
0!
0*
#110000
1!
1*
1(!
0)!
03
0/
0,
0-
1+
11
1/
00
1-
01
12
10
02
#120000
0!
0*
#130000
1!
1*
1)!
1,
0+
0/
0-
11
00
12
#140000
0!
0*
#150000
1!
1*
1&!
0'!
0(!
0)!
04
01
1/
0,
02
10
1-
1+
14
15
12
00
0-
05
#160000
0!
0*
#170000
1!
1*
1)!
1,
0+
1-
#180000
0!
0*
#190000
1!
1*
1(!
0)!
0/
0,
0-
1+
1/
10
1-
00
#200000
0!
0*
#210000
1!
1*
1)!
1,
0+
0/
0-
10
#220000
0!
0*
#230000
1!
1*
1'!
0(!
0)!
11
1/
0,
00
1-
1+
04
01
02
10
0-
14
15
12
05
#240000
0!
0*
#250000
1!
1*
1)!
1,
0+
1-
#260000
0!
0*
#270000
1!
1*
1(!
0)!
0/
0,
0-
1+
11
1/
00
1-
04
01
02
10
14
15
12
05
#280000
0!
0*
#290000
1!
1*
1)!
1,
0+
0/
0-
11
00
04
02
15
#300000
0!
0*
#310000
1!
1*
1%!
0&!
0'!
0(!
0)!
16
14
01
1/
0,
05
12
10
1-
1+
06
17
15
02
00
0-
07
#320000
0!
0*
#330000
1!
1*
1)!
1,
0+
1-
#340000
0!
0*
#350000
1!
1*
1(!
0)!
0/
0,
0-
1+
1/
10
1-
00
#360000
0!
0*
#370000
1!
1*
1)!
1,
0+
0/
0-
10
#380000
0!
0*
#390000
1!
1*
1'!
0(!
0)!
11
1/
0,
00
1-
1+
01
12
10
0-
02
#400000
0!
0*
#410000
1!
1*
1)!
13
1,
0+
1-
#420000
0!
0*
#430000
1!
1*
1(!
0)!
03
0/
0,
0-
1+
11
1/
00
1-
01
12
10
02
#440000
0!
0*
#450000
1!
1*
1)!
1,
0+
0/
0-
11
00
12
#460000
0!
0*
#470000
1!
1*
1&!
0'!
0(!
0)!
04
01
1/
0,
02
10
1-
1+
16
14
05
12
00
0-
06
17
15
07
#480000
0!
0*
#490000
1!
1*
1)!
1,
0+
1-
#500000
0!
0*
#510000
1!
1*
1(!
0)!
0/
0,
0-
1+
1/
10
1-
00
#520000
0!
0*
#530000
1!
1*
1)!
1,
0+
0/
0-
10
#540000
0!
0*
#550000
1!
1*
1'!
0(!
0)!
11
1/
0,
00
1-
1+
04
01
02
10
0-
16
14
05
12
06
17
15
07
#560000
0!
0*
#570000
1!
1*
1)!
1,
0+
1-
#580000
0!
0*
#590000
1!
1*
1(!
0)!
0/
0,
0-
1+
11
1/
00
1-
04
01
02
10
16
14
05
12
06
17
15
07
#600000
0!
0*
#610000
1!
1*
1)!
1,
0+
0/
0-
11
00
04
02
16
05
17
#620000
0!
0*
#630000
1!
1*
1$!
0%!
0&!
0'!
0(!
0)!
08
06
14
01
1/
0,
07
15
12
10
1-
1+
18
19
17
05
02
00
0-
09
#640000
0!
0*
#650000
1!
1*
1)!
1,
0+
1-
#660000
0!
0*
#670000
1!
1*
1(!
0)!
0/
0,
0-
1+
1/
10
1-
00
#680000
0!
0*
#690000
1!
1*
1)!
1,
0+
0/
0-
10
#700000
0!
0*
#710000
1!
1*
1'!
0(!
0)!
11
1/
0,
00
1-
1+
01
12
10
0-
02
#720000
0!
0*
#730000
1!
1*
1)!
13
1,
0+
1-
#740000
0!
0*
#750000
1!
1*
1(!
0)!
03
0/
0,
0-
1+
11
1/
00
1-
01
12
10
02
#760000
0!
0*
#770000
1!
1*
1)!
1,
0+
0/
0-
11
00
12
#780000
0!
0*
#790000
1!
1*
1&!
0'!
0(!
0)!
04
01
1/
0,
02
10
1-
1+
14
15
12
00
0-
05
#800000
0!
0*
#810000
1!
1*
1)!
1,
0+
1-
#820000
0!
0*
#830000
1!
1*
1(!
0)!
0/
0,
0-
1+
1/
10
1-
00
#840000
0!
0*
#850000
1!
1*
1)!
1,
0+
0/
0-
10
#860000
0!
0*
#870000
1!
1*
1'!
0(!
0)!
11
1/
0,
00
1-
1+
04
01
02
10
0-
14
15
12
05
#880000
0!
0*
#890000
1!
1*
1)!
1,
0+
1-
#900000
0!
0*
#910000
1!
1*
1(!
0)!
0/
0,
0-
1+
11
1/
00
1-
04
01
02
10
14
15
12
05
#920000
0!
0*
#930000
1!
1*
1)!
1,
0+
0/
0-
11
00
04
02
15
#940000
0!
0*
#950000
1!
1*
1%!
0&!
0'!
0(!
0)!
16
14
01
1/
0,
05
12
10
1-
1+
08
06
07
15
02
00
0-
18
19
17
09
#960000
0!
0*
#970000
1!
1*
1)!
1,
0+
1-
#980000
0!
0*
#990000
1!
1*
1(!
0)!
0/
0,
0-
1+
1/
10
1-
00
#1000000
0!
0*
#1010000
1!
1*
1)!
1,
0+
0/
0-
10
#1020000
0!
0*
#1030000
1!
1*
1'!
0(!
0)!
11
1/
0,
00
1-
1+
01
12
10
0-
02
#1040000
0!
0*
#1050000
1!
1*
1)!
13
1,
0+
1-
#1060000
0!
0*
#1070000
1!
1*
1(!
0)!
03
0/
0,
0-
1+
11
1/
00
1-
01
12
10
02
#1080000
0!
0*
#1090000
1!
1*
1)!
1,
0+
0/
0-
11
00
12
#1100000
0!
0*
#1110000
1!
1*
1&!
0'!
0(!
0)!
04
01
1/
0,
02
10
1-
1+
16
14
05
12
00
0-
08
06
07
15
18
19
17
09
#1120000
0!
0*
#1130000
1!
1*
1)!
1,
0+
1-
#1140000
0!
0*
#1150000
1!
1*
1(!
0)!
0/
0,
0-
1+
1/
10
1-
00
#1160000
0!
0*
#1170000
1!
1*
1)!
1,
0+
0/
0-
10
#1180000
0!
0*
#1190000
1!
1*
1'!
0(!
0)!
11
1/
0,
00
1-
1+
04
01
02
10
0-
16
14
05
12
08
06
07
15
18
19
17
09
#1200000
0!
0*
#1210000
1!
1*
1)!
1,
0+
1-
#1220000
0!
0*
#1230000
1!
1*
1(!
0)!
0/
0,
0-
1+
11
1/
00
1-
04
01
02
10
16
14
05
12
08
06
07
15
18
19
17
09
#1240000
0!
0*
#1250000
1!
1*
1)!
1,
0+
0/
0-
11
00
04
02
16
05
08
07
19
#1260000
0!
0*
#1270000
1!
1*
1#!
0$!
0%!
0&!
0'!
0(!
0)!
1<
1:
18
06
14
01
1/
0,
09
17
15
12
10
1-
1+
0:
1;
19
07
05
02
00
0-
0;
#1280000
0!
0*
#1290000
1!
1*
1)!
1,
0+
1-
#1300000
0!
0*
#1310000
1!
1*
1(!
0)!
0/
0,
0-
1+
1/
10
1-
00
#1320000
0!
0*
#1330000
1!
1*
1)!
1,
0+
0/
0-
10
#1340000
0!
0*
#1350000
1!
1*
1'!
0(!
0)!
11
1/
0,
00
1-
1+
01
12
10
0-
02
#1360000
0!
0*
#1370000
1!
1*
1)!
13
1,
0+
1-
#1380000
0!
0*
#1390000
1!
1*
1(!
0)!
03
0/
0,
0-
1+
11
1/
00
1-
01
12
10
02
#1400000
0!
0*
#1410000
1!
1*
1)!
1,
0+
0/
0-
11
00
12
#1420000
0!
0*
#1430000
1!
1*
1&!
0'!
0(!
0)!
04
01
1/
0,
02
10
1-
1+
14
15
12
00
0-
05
#1440000
0!
0*
#1450000
1!
1*
1)!
1,
0+
1-
#1460000
0!
0*
#1470000
1!
1*
1(!
0)!
0/
0,
0-
1+
1/
10
1-
00
#1480000
0!
0*
#1490000
1!
1*
1)!
1,
0+
0/
0-
10
#1500000
0!
0*
#1510000
1!
1*
1'!
0(!
0)!
11
1/
0,
00
1-
1+
04
01
02
10
0-
14
15
12
05
#1520000
0!
0*
#1530000
1!
1*
1)!
1,
0+
1-
#1540000
0!
0*
#1550000
1!
1*
1(!
0)!
0/
0,
0-
1+
11
1/
00
1-
04
01
02
10
14
15
12
05
#1560000
0!
0*
#1570000
1!
1*
1)!
1,
0+
0/
0-
11
00
04
02
15
#1580000
0!
0*
#1590000
1!
1*
1%!
0&!
0'!
0(!
0)!
0<
16
14
01
1/
0,
05
12
10
1-
1+
06
17
15
02
00
0-
07
#1600000
0!
0*
#1610000
1!
1*
1)!
1,
0+
1-
#1620000
0!
0*
#1630000
1!
1*
1(!
0)!
0/
0,
0-
1+
1/
10
1-
00
#1640000
0!
0*
#1650000
1!
1*
1)!
1,
0+
0/
0-
10
#1660000
0!
0*
#1670000
1!
1*
1'!
0(!
0)!
11
1/
0,
00
1-
1+
01
12
10
0-
02
#1680000
0!
0*
#1690000
1!
1*
1)!
13
1,
0+
1-
#1700000
0!
0*
#1710000
1!
1*
1(!
0)!
03
0/
0,
0-
1+
11
1/
00
1-
01
12
10
02
#1720000
0!
0*
#1730000
1!
1*
1)!
1,
0+
0/
0-
11
00
12
#1740000
0!
0*
#1750000
1!
1*
1&!
0'!
0(!
0)!
04
01
1/
0,
02
10
1-
1+
16
14
05
12
00
0-
06
17
15
07
#1760000
0!
0*
#1770000
1!
1*
1)!
1,
0+
1-
#1780000
0!
0*
#1790000
1!
1*
1(!
0)!
0/
0,
0-
1+
1/
10
1-
00
#1800000
0!
0*
#1810000
1!
1*
1)!
1,
0+
0/
0-
10
#1820000
0!
0*
#1830000
1!
1*
1'!
0(!
0)!
11
1/
0,
00
1-
1+
04
01
02
10
0-
16
14
05
12
06
17
15
07
#1840000
0!
0*
#1850000
1!
1*
1)!
1,
0+
1-
#1860000
0!
0*
#1870000
1!
1*
1(!
0)!
0/
0,
0-
1+
11
1/
00
1-
04
01
02
10
16
14
05
12
06
17
15
07
#1880000
0!
0*
#1890000
1!
1*
1)!
1,
0+
0/
0-
11
00
04
02
16
05
17
#1900000
0!
0*
#1910000
1!
1*
1$!
0%!
0&!
0'!
0(!
0)!
08
06
14
01
1/
0,
07
15
12
10
1-
1+
1:
18
09
17
05
02
00
0-
0:
1;
19
0;
#1920000
0!
0*
#1930000
1!
1*
1)!
1,
0+
1-
#1940000
0!
0*
#1950000
1!
1*
1(!
0)!
0/
0,
0-
1+
1/
10
1-
00
#1960000
0!
0*
#1970000
1!
1*
1)!
1,
0+
0/
0-
10
#1980000
0!
0*
#1990000
1!
1*
1'!
0(!
0)!
11
1/
0,
00
1-
1+
01
12
10
0-
02
#2000000
0!
0*
#2010000
1!
1*
1)!
13
1,
0+
1-
#2020000
0!
0*
#2030000
1!
1*
1(!
0)!
03
0/
0,
0-
1+
11
1/
00
1-
01
12
10
02
#2040000
0!
0*
#2050000
1!
1*
1)!
1,
0+
0/
0-
11
00
12
#2060000
0!
0*
#2070000
1!
1*
1&!
0'!
0(!
0)!
04
01
1/
0,
02
10
1-
1+
14
15
12
00
0-
05
#2080000
0!
0*
#2090000
1!
1*
1)!
1,
0+
1-
#2100000
0!
0*
#2110000
1!
1*
1(!
0)!
0/
0,
0-
1+
1/
10
1-
00
#2120000
0!
0*
#2130000
1!
1*
1)!
1,
0+
0/
0-
10
#2140000
0!
0*
#2150000
1!
1*
1'!
0(!
0)!
11
1/
0,
00
1-
1+
04
01
02
10
0-
14
15
12
05
#2160000
0!
0*
#2170000
1!
1*
1)!
1,
0+
1-
#2180000
0!
0*
#2190000
1!
1*
1(!
0)!
0/
0,
0-
1+
11
1/
00
1-
04
01
02
10
14
15
12
05
#2200000
0!
0*
#2210000
1!
1*
1)!
1,
0+
0/
0-
11
00
04
02
15
#2220000
0!
0*
#2230000
1!
1*
1%!
0&!
0'!
0(!
0)!
16
14
01
1/
0,
05
12
10
1-
1+
08
06
07
15
02
00
0-
1:
18
09
17
0:
1;
19
0;
#2240000
0!
0*
#2250000
1!
1*
1)!
1,
0+
1-
#2260000
0!
0*
#2270000
1!
1*
1(!
0)!
0/
0,
0-
1+
1/
10
1-
00
#2280000
0!
0*
#2290000
1!
1*
1)!
1,
0+
0/
0-
10
#2300000
0!
0*
#2310000
1!
1*
1'!
0(!
0)!
11
1/
0,
00
1-
1+
01
12
10
0-
02
#2320000
0!
0*
#2330000
1!
1*
1)!
13
1,
0+
1-
#2340000
0!
0*
#2350000
1!
1*
1(!
0)!
03
0/
0,
0-
1+
11
1/
00
1-
01
12
10
02
#2360000
0!
0*
#2370000
1!
1*
1)!
1,
0+
0/
0-
11
00
12
#2380000
0!
0*
#2390000
1!
1*
1&!
0'!
0(!
0)!
04
01
1/
0,
02
10
1-
1+
16
14
05
12
00
0-
08
06
07
15
1:
18
09
17
0:
1;
19
0;
#2400000
0!
0*
#2410000
1!
1*
1)!
1,
0+
1-
#2420000
0!
0*
#2430000
1!
1*
1(!
0)!
0/
0,
0-
1+
1/
10
1-
00
#2440000
0!
0*
#2450000
1!
1*
1)!
1,
0+
0/
0-
10
#2460000
0!
0*
#2470000
1!
1*
1'!
0(!
0)!
11
1/
0,
00
1-
1+
04
01
02
10
0-
16
14
05
12
08
06
07
15
1:
18
09
17
0:
1;
19
0;
#2480000
0!
0*
#2490000
1!
1*
1)!
1,
0+
1-
#2500000
0!
0*
#2510000
1!
1*
1(!
0)!
0/
0,
0-
1+
11
1/
00
1-
04
01
02
10
16
14
05
12
08
06
07
15
1:
18
09
17
0:
1;
19
0;
#2520000
0!
0*
#2530000
1!
1*
1)!
1,
0+
0/
0-
11
00
04
02
16
05
08
07
1:
09
1;
#2540000
0!
0*
#2550000
1!
1*
1"!
0#!
0$!
0%!
0&!
0'!
0(!
0)!
0=
0:
18
06
14
01
1/
0,
0;
19
17
15
12
10
1-
1+
1=
1>
1;
09
07
05
02
00
0-
0>
#2560000
0!
0*
#2570000
1!
1*
1)!
1,
0+
1-
#2580000
0!
0*
#2590000
1!
1*
1(!
0)!
0/
0,
0-
1+
1/
10
1-
00
#2600000
0!
0*
#2610000
1!
1*
1)!
1,
0+
0/
0-
10
#2620000
0!
0*
#2630000
1!
1*
1'!
0(!
0)!
11
1/
0,
00
1-
1+
01
12
10
0-
02
#2640000
0!
0*
#2650000
1!
1*
1)!
13
1,
0+
1-
#2660000
0!
0*
#2670000
1!
1*
1(!
0)!
03
0/
0,
0-
1+
11
1/
00
1-
01
12
10
02
#2680000
0!
0*
#2690000
1!
1*
1)!
1,
0+
0/
0-
11
00
12
#2700000
0!
0*
#2710000
1!
1*
1&!
0'!
0(!
0)!
04
01
1/
0,
02
10
1-
1+
14
15
12
00
0-
05
#2720000
0!
0*
#2730000
1!
1*
1)!
1,
0+
1-
#2740000
0!
0*
#2750000
1!
1*
1(!
0)!
0/
0,
0-
1+
1/
10
1-
00
#2760000
0!
0*
#2770000
1!
1*
1)!
1,
0+
0/
0-
10
#2780000
0!
0*
#2790000
1!
1*
1'!
0(!
0)!
11
1/
0,
00
1-
1+
04
01
02
10
0-
14
15
12
05
#2800000
0!
0*
#2810000
1!
1*
1)!
1,
0+
1-
#2820000
0!
0*
#2830000
1!
1*
1(!
0)!
0/
0,
0-
1+
11
1/
00
1-
04
01
02
10
14
15
12
05
#2840000
0!
0*
#2850000
1!
1*
1)!
1,
0+
0/
0-
11
00
04
02
15
#2860000
0!
0*
#2870000
1!
1*
1%!
0&!
0'!
0(!
0)!
16
14
01
1/
0,
05
12
10
1-
1+
06
17
15
02
00
0-
07
#2880000
0!
0*
#2890000
1!
1*
1)!
1,
0+
1-
#2900000
0!
0*
#2910000
1!
1*
1(!
0)!
0/
0,
0-
1+
1/
10
1-
00
#2920000
0!
0*
#2930000
1!
1*
1)!
1,
0+
0/
0-
10
#2940000
0!
0*
#2950000
1!
1*
1'!
0(!
0)!
11
1/
0,
00
1-
1+
01
12
10
0-
02
#2960000
0!
0*
#2970000
1!
1*
1)!
13
1,
0+
1-
#2980000
0!
0*
#2990000
1!
1*
1(!
0)!
03
0/
0,
0-
1+
11
1/
00
1-
01
12
10
02
#3000000
0!
0*
#3010000
1!
1*
1)!
1,
0+
0/
0-
11
00
12
#3020000
0!
0*
#3030000
1!
1*
1&!
0'!
0(!
0)!
04
01
1/
0,
02
10
1-
1+
16
14
05
12
00
0-
06
17
15
07
#3040000
0!
0*
#3050000
1!
1*
1)!
1,
0+
1-
#3060000
0!
0*
#3070000
1!
1*
1(!
0)!
0/
0,
0-
1+
1/
10
1-
00
#3080000
0!
0*
#3090000
1!
1*
1)!
1,
0+
0/
0-
10
#3100000
0!
0*
#3110000
1!
1*
1'!
0(!
0)!
11
1/
0,
00
1-
1+
04
01
02
10
0-
16
14
05
12
06
17
15
07
#3120000
0!
0*
#3130000
1!
1*
1)!
1,
0+
1-
#3140000
0!
0*
#3150000
1!
1*
1(!
0)!
0/
0,
0-
1+
11
1/
00
1-
04
01
02
10
16
14
05
12
06
17
15
07
#3160000
0!
0*
#3170000
1!
1*
1)!
1,
0+
0/
0-
11
00
04
02
16
05
17
#3180000
0!
0*
#3190000
1!
1*
1$!
0%!
0&!
0'!
0(!
0)!
08
06
14
01
1/
0,
07
15
12
10
1-
1+
18
19
17
05
02
00
0-
09
#3200000
0!
0*
#3210000
1!
1*
1)!
1,
0+
1-
#3220000
0!
0*
#3230000
1!
1*
1(!
0)!
0/
0,
0-
1+
1/
10
1-
00
#3240000
0!
0*
#3250000
1!
1*
1)!
1,
0+
0/
0-
10
#3260000
0!
0*
#3270000
1!
1*
1'!
0(!
0)!
11
1/
0,
00
1-
1+
01
12
10
0-
02
#3280000
0!
0*
#3290000
1!
1*
1)!
13
1,
0+
1-
#3300000
0!
0*
#3310000
1!
1*
1(!
0)!
03
0/
0,
0-
1+
11
1/
00
1-
01
12
10
02
#3320000
0!
0*
#3330000
1!
1*
1)!
1,
0+
0/
0-
11
00
12
#3340000
0!
0*
#3350000
1!
1*
1&!
0'!
0(!
0)!
04
01
1/
0,
02
10
1-
1+
14
15
12
00
0-
05
#3360000
0!
0*
#3370000
1!
1*
1)!
1,
0+
1-
#3380000
0!
0*
#3390000
1!
1*
1(!
0)!
0/
0,
0-
1+
1/
10
1-
00
#3400000
0!
0*
#3410000
1!
1*
1)!
1,
0+
0/
0-
10
#3420000
0!
0*
#3430000
1!
1*
1'!
0(!
0)!
11
1/
0,
00
1-
1+
04
01
02
10
0-
14
15
12
05
#3440000
0!
0*
#3450000
1!
1*
1)!
1,
0+
1-
#3460000
0!
0*
#3470000
1!
1*
1(!
0)!
0/
0,
0-
1+
11
1/
00
1-
04
01
02
10
14
15
12
05
#3480000
0!
0*
#3490000
1!
1*
1)!
1,
0+
0/
0-
11
00
04
02
15
#3500000
0!
0*
#3510000
1!
1*
1%!
0&!
0'!
0(!
0)!
16
14
01
1/
0,
05
12
10
1-
1+
08
06
07
15
02
00
0-
18
19
17
09
#3520000
0!
0*
#3530000
1!
1*
1)!
1,
0+
1-
#3540000
0!
0*
#3550000
1!
1*
1(!
0)!
0/
0,
0-
1+
1/
10
1-
00
#3560000
0!
0*
#3570000
1!
1*
1)!
1,
0+
0/
0-
10
#3580000
0!
0*
#3590000
1!
1*
1'!
0(!
0)!
11
1/
0,
00
1-
1+
01
12
10
0-
02
#3600000
0!
0*
#3610000
1!
1*
1)!
13
1,
0+
1-
#3620000
0!
0*
#3630000
1!
1*
1(!
0)!
03
0/
0,
0-
1+
11
1/
00
1-
01
12
10
02
#3640000
0!
0*
#3650000
1!
1*
1)!
1,
0+
0/
0-
11
00
12
#3660000
0!
0*
#3670000
1!
1*
1&!
0'!
0(!
0)!
04
01
1/
0,
02
10
1-
1+
16
14
05
12
00
0-
08
06
07
15
18
19
17
09
#3680000
0!
0*
#3690000
1!
1*
1)!
1,
0+
1-
#3700000
0!
0*
#3710000
1!
1*
1(!
0)!
0/
0,
0-
1+
1/
10
1-
00
#3720000
0!
0*
#3730000
1!
1*
1)!
1,
0+
0/
0-
10
#3740000
0!
0*
#3750000
1!
1*
1'!
0(!
0)!
11
1/
0,
00
1-
1+
04
01
02
10
0-
16
14
05
12
08
06
07
15
18
19
17
09
#3760000
0!
0*
#3770000
1!
1*
1)!
1,
0+
1-
#3780000
0!
0*
#3790000
1!
1*
1(!
0)!
0/
0,
0-
1+
11
1/
00
1-
04
01
02
10
16
14
05
12
08
06
07
15
18
19
17
09
#3800000
0!
0*
#3810000
1!
1*
1)!
1,
0+
0/
0-
11
00
04
02
16
05
08
07
19
#3820000
0!
0*
#3830000
1!
1*
1#!
0$!
0%!
0&!
0'!
0(!
0)!
1:
18
06
14
01
1/
0,
09
17
15
12
10
1-
1+
0=
0:
0;
19
07
05
02
00
0-
1=
1>
1;
0>
#3840000
0!
0*
#3850000
1!
1*
1)!
1,
0+
1-
#3860000
0!
0*
#3870000
1!
1*
1(!
0)!
0/
0,
0-
1+
1/
10
1-
00
#3880000
0!
0*
#3890000
1!
1*
1)!
1,
0+
0/
0-
10
#3900000
0!
0*
#3910000
1!
1*
1'!
0(!
0)!
11
1/
0,
00
1-
1+
01
12
10
0-
02
#3920000
0!
0*
#3930000
1!
1*
1)!
13
1,
0+
1-
#3940000
0!
0*
#3950000
1!
1*
1(!
0)!
03
0/
0,
0-
1+
11
1/
00
1-
01
12
10
02
#3960000
0!
0*
#3970000
1!
1*
1)!
1,
0+
0/
0-
11
00
12
#3980000
0!
0*
#3990000
1!
1*
1&!
0'!
0(!
0)!
04
01
1/
0,
02
10
1-
1+
14
15
12
00
0-
05
#4000000
0!
0*
#4010000
1!
1*
1)!
1,
0+
1-
#4020000
0!
0*
#4030000
1!
1*
1(!
0)!
0/
0,
0-
1+
1/
10
1-
00
#4040000
0!
0*
#4050000
1!
1*
1)!
1,
0+
0/
0-
10
#4060000
0!
0*
#4070000
1!
1*
1'!
0(!
0)!
11
1/
0,
00
1-
1+
04
01
02
10
0-
14
15
12
05
#4080000
0!
0*
#4090000
1!
1*
1)!
1,
0+
1-
#4100000
0!
0*
#4110000
1!
1*
1(!
0)!
0/
0,
0-
1+
11
1/
00
1-
04
01
02
10
14
15
12
05
#4120000
0!
0*
#4130000
1!
1*
1)!
1,
0+
0/
0-
11
00
04
02
15
#4140000
0!
0*
#4150000
1!
1*
1%!
0&!
0'!
0(!
0)!
16
14
01
1/
0,
05
12
10
1-
1+
06
17
15
02
00
0-
07
#4160000
0!
0*
#4170000
1!
1*
1)!
1,
0+
1-
#4180000
0!
0*
#4190000
1!
1*
1(!
0)!
0/
0,
0-
1+
1/
10
1-
00
#4200000
0!
0*
#4210000
1!
1*
1)!
1,
0+
0/
0-
10
#4220000
0!
0*
#4230000
1!
1*
1'!
0(!
0)!
11
1/
0,
00
1-
1+
01
12
10
0-
02
#4240000
0!
0*
#4250000
1!
1*
1)!
13
1,
0+
1-
#4260000
0!
0*
#4270000
1!
1*
1(!
0)!
03
0/
0,
0-
1+
11
1/
00
1-
01
12
10
02
#4280000
0!
0*
